artifact_uri,end_time,experiment,experiment_id,lifecycle_stage,metrics.accuracy,metrics.accuracy_test,metrics.binary_accuracy,metrics.loss,metrics.model_size_test,metrics.neg_precision_test,metrics.neg_recall_test,metrics.pos_precision_test,metrics.pos_recall_test,metrics.restored_epoch,metrics.stopped_epoch,metrics.val_accuracy,metrics.val_binary_accuracy,metrics.val_loss,params.baseline,params.batch_size,params.batch_size_param,params.class_weight,params.epochs,params.imbalanced_param,params.initial_epoch,params.learning_rate_param,params.max_features_param,params.max_queue_size,params.method,params.min_delta,params.monitor,params.opt_amsgrad,params.opt_beta_1,params.opt_beta_2,params.opt_decay,params.opt_epsilon,params.opt_learning_rate,params.opt_name,params.opt_weight_decay_rate,params.patience,params.restore_best_weights,params.sample_weight,params.seed_param,params.shuffle,params.steps_per_epoch,params.use_multiprocessing,params.validation_batch_size,params.validation_freq,params.validation_split,params.validation_steps,params.workers,run_id,run_uuid,start_time,status,tags.mlflow.log-model.history,tags.mlflow.runName,tags.mlflow.source.git.commit,tags.mlflow.source.name,tags.mlflow.source.type,tags.mlflow.user,user_id
s3://mlflow/7/dd252308bd1543e08f55a57b634da0fd/artifacts,1632219522199,klearn.distilbert,7,active,0.9179666638374328,0.946375,,0.1996801197528839,255.7661476135254,0.9531035882860478,0.93895,0.93984332659999,0.9538,0.0,5.0,0.9455999732017516,,0.1320658475160598,None,None,32,None,1024,False,0,0.0001,10000,10,whitelist_blacklist_cutted,0.0,val_loss,False,0.9,0.999,0.0,1e-07,1e-05,Adam,,5.0,True,None,42,True,20000,False,None,1,0.0,1250,1,dd252308bd1543e08f55a57b634da0fd,dd252308bd1543e08f55a57b634da0fd,1632204005218,FINISHED,"[{""run_id"": ""dd252308bd1543e08f55a57b634da0fd"", ""artifact_path"": ""model"", ""utc_time_created"": ""2021-09-21 09:56:03.356791"", ""flavors"": {""keras"": {""keras_module"": ""keras"", ""keras_version"": ""2.5.0"", ""save_format"": ""tf"", ""data"": ""data""}, ""python_function"": {""loader_module"": ""mlflow.keras"", ""python_version"": ""3.8.0"", ""data"": ""data"", ""env"": ""conda.yaml""}}}]",Distilbert_klearn-06_00_04-21_09_2021,19f97ae7ebcaf250fc12e0ef2386389bd96be4bc,main.py,LOCAL,fheinri2,fheinri2
s3://mlflow/4/3c94a3e712904d5e9f035fab48b7da04/artifacts,1632155785926,tensorflow.bi,4,active,,0.894825,0.8991749882698059,0.1918872892856598,17.757953643798828,0.8454135864572854,0.96635,0.9607328315537662,0.8233,,0.0,,0.892300009727478,0.2016776800155639,None,None,32,None,10,False,0,0.0001,10000,10,whitelist_blacklist_cutted,0.0,loss,False,0.9,0.999,0.0,1e-07,0.0001,Adam,,3.0,False,None,42,True,None,False,None,1,0.0,None,1,3c94a3e712904d5e9f035fab48b7da04,3c94a3e712904d5e9f035fab48b7da04,1631102097765,FINISHED,"[{""run_id"": ""3c94a3e712904d5e9f035fab48b7da04"", ""artifact_path"": ""model"", ""utc_time_created"": ""2021-09-08 12:09:50.454811"", ""flavors"": {""keras"": {""keras_module"": ""keras"", ""keras_version"": ""2.5.0"", ""save_format"": ""tf"", ""data"": ""data""}, ""python_function"": {""loader_module"": ""mlflow.keras"", ""python_version"": ""3.8.0"", ""data"": ""data"", ""env"": ""conda.yaml""}}}]",Bi_tf-11_54_57-08_09_2021,814d288e7e5d12d076482ccf63885ebb62031bb5,main.py,LOCAL,fheinri2,fheinri2
s3://mlflow/6/41deff4d060045149a285322d37964ac/artifacts,1632203994257,klearn.bigru,6,active,0.9060583114624025,0.8948,,0.1651023179292678,40.51554012298584,0.8508397760597174,0.95745,0.9513547502000684,0.83215,8.0,13.0,0.8920000195503235,,0.1935314238071441,None,32,32,None,1024,False,0,0.0001,10000,10,whitelist_blacklist_cutted,0.0,val_loss,False,0.9,0.999,0.0,1e-07,1e-05,Adam,,5.0,True,None,42,True,None,False,None,1,0.0,None,1,41deff4d060045149a285322d37964ac,41deff4d060045149a285322d37964ac,1632201750320,FINISHED,"[{""run_id"": ""41deff4d060045149a285322d37964ac"", ""artifact_path"": ""model"", ""utc_time_created"": ""2021-09-21 05:59:15.288618"", ""flavors"": {""keras"": {""keras_module"": ""keras"", ""keras_version"": ""2.5.0"", ""save_format"": ""tf"", ""data"": ""data""}, ""python_function"": {""loader_module"": ""mlflow.keras"", ""python_version"": ""3.8.0"", ""data"": ""data"", ""env"": ""conda.yaml""}}}]",Bigru_klearn-05_22_29-21_09_2021,19f97ae7ebcaf250fc12e0ef2386389bd96be4bc,main.py,LOCAL,fheinri2,fheinri2
s3://mlflow/8/5cfe187d786d4430b52ab268f25ff444/artifacts,1632228269425,klearn.gru,8,active,0.9033750295639038,0.893975,,0.1808055639266967,42.41191005706787,0.8471910112359551,0.96135,0.955330829240104,0.8266,40.0,45.0,0.8912500143051147,,0.1981391012668609,None,32,32,None,1024,False,0,0.0001,10000,10,whitelist_blacklist_cutted,0.0,val_loss,False,0.9,0.999,0.0,1e-06,1e-05,AdamWeightDecay,0.01,5.0,True,None,42,True,None,False,None,1,0.0,None,1,5cfe187d786d4430b52ab268f25ff444,5cfe187d786d4430b52ab268f25ff444,1632219532675,FINISHED,"[{""run_id"": ""5cfe187d786d4430b52ab268f25ff444"", ""artifact_path"": ""model"", ""utc_time_created"": ""2021-09-21 12:43:50.980835"", ""flavors"": {""keras"": {""keras_module"": ""keras"", ""keras_version"": ""2.5.0"", ""save_format"": ""tf"", ""data"": ""data""}, ""python_function"": {""loader_module"": ""mlflow.keras"", ""python_version"": ""3.8.0"", ""data"": ""data"", ""env"": ""conda.yaml""}}}]",Gru_klearn-10_18_52-21_09_2021,19f97ae7ebcaf250fc12e0ef2386389bd96be4bc,main.py,LOCAL,fheinri2,fheinri2
s3://mlflow/11/bcf2f6bd7995443c979f861f046f0a37/artifacts,1632229558948,klearn.fasttext,11,active,0.6038583517074585,0.89335,,0.79075688123703,11.441786766052246,0.8457414081040696,0.9622,0.9561637481155052,0.8245,,,,,,,32,32,None,1,False,0,0.0001,10000,10,whitelist_blacklist_cutted,,,False,0.9,0.999,0.0,1e-07,1e-07,Adam,,,,None,42,True,None,False,None,1,0.0,None,1,bcf2f6bd7995443c979f861f046f0a37,bcf2f6bd7995443c979f861f046f0a37,1632228280094,FINISHED,"[{""run_id"": ""bcf2f6bd7995443c979f861f046f0a37"", ""artifact_path"": ""model"", ""utc_time_created"": ""2021-09-21 12:45:20.703068"", ""flavors"": {""keras"": {""keras_module"": ""keras"", ""keras_version"": ""2.5.0"", ""save_format"": ""tf"", ""data"": ""data""}, ""python_function"": {""loader_module"": ""mlflow.keras"", ""python_version"": ""3.8.0"", ""data"": ""data"", ""env"": ""conda.yaml""}}}]",Fasttext_klearn-12_44_39-21_09_2021,19f97ae7ebcaf250fc12e0ef2386389bd96be4bc,main.py,LOCAL,fheinri2,fheinri2
s3://mlflow/12/9e1585a89ea64c6d8744729b48863c61/artifacts,1632155785815,tensorflow.fasttext,12,active,,0.89015,0.9042083621025084,0.1786932647228241,4.1756086349487305,0.8392608695652174,0.96515,0.959,0.81515,,0.0,,0.8883249759674072,0.2021142691373825,None,None,32,None,10,False,0,0.0001,10000,10,whitelist_blacklist_cutted,0.0,loss,False,0.9,0.999,0.0,1e-07,0.0001,Adam,,3.0,False,None,42,True,None,False,None,1,0.0,None,1,9e1585a89ea64c6d8744729b48863c61,9e1585a89ea64c6d8744729b48863c61,1631132605613,FINISHED,"[{""run_id"": ""9e1585a89ea64c6d8744729b48863c61"", ""artifact_path"": ""model"", ""utc_time_created"": ""2021-09-08 20:28:32.790307"", ""flavors"": {""keras"": {""keras_module"": ""keras"", ""keras_version"": ""2.5.0"", ""save_format"": ""tf"", ""data"": ""data""}, ""python_function"": {""loader_module"": ""mlflow.keras"", ""python_version"": ""3.8.0"", ""data"": ""data"", ""env"": ""conda.yaml""}}}]",Fasttext_tf-20_23_25-08_09_2021,814d288e7e5d12d076482ccf63885ebb62031bb5,main.py,LOCAL,fheinri2,fheinri2
s3://mlflow/10/6e768592a1254a54a3ebc26a22f37ba9/artifacts,1632155788654,tensorflow.grure,10,active,,0.8858,0.8672916889190674,0.2566075921058655,10.841012001037598,0.8367667597765364,0.9586,0.9515449438202248,0.813,,0.0,,0.8841000199317932,0.2200757265090942,None,None,32,None,10,False,0,0.0001,10000,10,whitelist_blacklist_cutted,0.0,loss,False,0.9,0.999,0.0,1e-07,0.0001,Adam,,3.0,False,None,42,True,None,False,None,1,0.0,None,1,6e768592a1254a54a3ebc26a22f37ba9,6e768592a1254a54a3ebc26a22f37ba9,1631130853490,FINISHED,"[{""run_id"": ""6e768592a1254a54a3ebc26a22f37ba9"", ""artifact_path"": ""model"", ""utc_time_created"": ""2021-09-08 20:05:29.266795"", ""flavors"": {""keras"": {""keras_module"": ""keras"", ""keras_version"": ""2.5.0"", ""save_format"": ""tf"", ""data"": ""data""}, ""python_function"": {""loader_module"": ""mlflow.keras"", ""python_version"": ""3.8.0"", ""data"": ""data"", ""env"": ""conda.yaml""}}}]",Grure_tf-19_54_13-08_09_2021,814d288e7e5d12d076482ccf63885ebb62031bb5,main.py,LOCAL,fheinri2,fheinri2
s3://mlflow/3/aa21e27cf05841edb69aec24b93843dc/artifacts,1632155788165,tensorflow.basic,3,active,,0.885725,0.8948833346366882,0.2015643119812011,4.050717353820801,0.8381624512339455,0.95605,0.9488566940129168,0.8154,,0.0,,0.884024977684021,0.2213286906480789,None,None,32,None,10,False,0,0.0001,10000,10,whitelist_blacklist_cutted,0.0,loss,False,0.9,0.999,0.0,1e-07,0.0001,Adam,,3.0,False,None,42,True,None,False,None,1,0.0,None,1,aa21e27cf05841edb69aec24b93843dc,aa21e27cf05841edb69aec24b93843dc,1631101796468,FINISHED,"[{""run_id"": ""aa21e27cf05841edb69aec24b93843dc"", ""artifact_path"": ""model"", ""utc_time_created"": ""2021-09-08 11:54:27.357120"", ""flavors"": {""keras"": {""keras_module"": ""keras"", ""keras_version"": ""2.5.0"", ""save_format"": ""tf"", ""data"": ""data""}, ""python_function"": {""loader_module"": ""mlflow.keras"", ""python_version"": ""3.8.0"", ""data"": ""data"", ""env"": ""conda.yaml""}}}]",Basic_tf-11_49_56-08_09_2021,814d288e7e5d12d076482ccf63885ebb62031bb5,main.py,LOCAL,fheinri2,fheinri2
s3://mlflow/9/1f426370016b4dca9b259be75b464357/artifacts,1632155787419,tensorflow.gru,9,active,,0.878225,0.8633583188056946,0.2664226591587066,9.74407196044922,0.9108238744365394,0.83855,0.8504192337981192,0.9179,,0.0,,0.880424976348877,0.2238340824842453,None,None,32,None,10,False,0,0.0001,10000,10,whitelist_blacklist_cutted,0.0,loss,False,0.9,0.999,0.0,1e-07,0.0001,Adam,,3.0,False,None,42,True,None,False,None,1,0.0,None,1,1f426370016b4dca9b259be75b464357,1f426370016b4dca9b259be75b464357,1631130103343,FINISHED,"[{""run_id"": ""1f426370016b4dca9b259be75b464357"", ""artifact_path"": ""model"", ""utc_time_created"": ""2021-09-08 19:52:50.386603"", ""flavors"": {""keras"": {""keras_module"": ""keras"", ""keras_version"": ""2.5.0"", ""save_format"": ""tf"", ""data"": ""data""}, ""python_function"": {""loader_module"": ""mlflow.keras"", ""python_version"": ""3.8.0"", ""data"": ""data"", ""env"": ""conda.yaml""}}}]",Gru_tf-19_41_42-08_09_2021,814d288e7e5d12d076482ccf63885ebb62031bb5,main.py,LOCAL,fheinri2,fheinri2
s3://mlflow/7/45b0eb7bd50a4756b73a22096b229ab2/artifacts,1632561471950,klearn.distilbert,7,active,0.9491130709648132,0.855475,,0.133422315120697,255.7661476135254,0.7901718297212359,0.968,0.9587070133557004,0.74295,15.0,20.0,0.8575500249862671,,0.3414187729358673,None,None,32,None,1024,False,0,0.0001,10000,10,whitelist_blacklist_and_dga_cutted,0.0,val_loss,False,0.9,0.999,0.0,1e-07,1e-05,Adam,,5.0,True,None,42,True,62793,False,None,1,0.0,1250,1,45b0eb7bd50a4756b73a22096b229ab2,45b0eb7bd50a4756b73a22096b229ab2,1632413039072,FINISHED,"[{""run_id"": ""45b0eb7bd50a4756b73a22096b229ab2"", ""artifact_path"": ""model"", ""utc_time_created"": ""2021-09-25 08:56:25.151643"", ""flavors"": {""keras"": {""keras_module"": ""keras"", ""keras_version"": ""2.5.0"", ""save_format"": ""tf"", ""data"": ""data""}, ""python_function"": {""loader_module"": ""mlflow.keras"", ""python_version"": ""3.8.0"", ""data"": ""data"", ""env"": ""conda.yaml""}}}]",Distilbert_klearn-16_03_58-23_09_2021,19f97ae7ebcaf250fc12e0ef2386389bd96be4bc,main.py,LOCAL,fheinri2,fheinri2
s3://mlflow/6/e7b232c516124b77b0dfdb9fbc598937/artifacts,1631882853068,klearn.bigru,6,active,0.8514123558998108,0.83949604890413,,0.2740586400032043,46.53852558135986,0.8097116430903155,0.8875801401520799,0.8756186077202244,0.7914119576561801,19.0,24.0,0.8380982279777527,,0.3078527748584747,None,32,32,None,1024,False,0,0.0001,10000,10,whitelist_blacklist,0.0,val_loss,False,0.9,0.999,0.0,1e-07,1e-05,Adam,,5.0,True,None,42,True,None,False,None,1,0.0,None,1,e7b232c516124b77b0dfdb9fbc598937,e7b232c516124b77b0dfdb9fbc598937,1631872191775,FINISHED,"[{""run_id"": ""e7b232c516124b77b0dfdb9fbc598937"", ""artifact_path"": ""model"", ""utc_time_created"": ""2021-09-17 12:46:08.258853"", ""flavors"": {""keras"": {""keras_module"": ""keras"", ""keras_version"": ""2.5.0"", ""save_format"": ""tf"", ""data"": ""data""}, ""python_function"": {""loader_module"": ""mlflow.keras"", ""python_version"": ""3.8.0"", ""data"": ""data"", ""env"": ""conda.yaml""}}}]",Bigru_klearn-09_49_51-17_09_2021,3060e17fd6d711a6de5e5fa9ef6789c143e413b1,main.py,LOCAL,fheinri2,fheinri2
s3://mlflow/4/bf629006ca804454a46a3b6d37b975eb/artifacts,1632155786159,tensorflow.bi,4,active,,0.8382473535112569,0.831886887550354,0.3241619169712066,17.753000259399414,0.8070273379347679,0.8890897569703295,0.8765352697095435,0.7874049500521842,,0.0,,0.8380423188209534,0.3127678036689758,None,None,32,None,10,False,0,0.0001,10000,10,whitelist_blacklist,0.0,loss,False,0.9,0.999,0.0,1e-07,0.0001,Adam,,3.0,False,None,42,True,None,False,None,1,0.0,None,1,bf629006ca804454a46a3b6d37b975eb,bf629006ca804454a46a3b6d37b975eb,1630763207340,FINISHED,"[{""run_id"": ""bf629006ca804454a46a3b6d37b975eb"", ""artifact_path"": ""model"", ""utc_time_created"": ""2021-09-04 14:25:24.128982"", ""flavors"": {""keras"": {""keras_module"": ""keras"", ""keras_version"": ""2.5.0"", ""save_format"": ""tf"", ""data"": ""data""}, ""python_function"": {""loader_module"": ""mlflow.keras"", ""python_version"": ""3.8.0"", ""data"": ""data"", ""env"": ""conda.yaml""}}}]",Bi_tf-13_46_47-04_09_2021,814d288e7e5d12d076482ccf63885ebb62031bb5,main.py,LOCAL,fheinri2,fheinri2
s3://mlflow/11/5e9fcd5c977b413a893b8654fdcbf466/artifacts,1632017195559,klearn.fasttext,11,active,0.5895296335220337,0.8347062770240048,,0.7108017206192017,17.46477222442627,0.8084043137793653,0.8773482928283882,0.8659127954360228,0.7920642612196213,,,,,,,32,32,None,1,False,0,0.0001,10000,10,whitelist_blacklist,,,False,0.9,0.999,0.0,1e-07,1e-07,Adam,,,,None,42,True,None,False,None,1,0.0,None,1,5e9fcd5c977b413a893b8654fdcbf466,5e9fcd5c977b413a893b8654fdcbf466,1632014424970,FINISHED,"[{""run_id"": ""5e9fcd5c977b413a893b8654fdcbf466"", ""artifact_path"": ""model"", ""utc_time_created"": ""2021-09-19 01:22:12.125907"", ""flavors"": {""keras"": {""keras_module"": ""keras"", ""keras_version"": ""2.5.0"", ""save_format"": ""tf"", ""data"": ""data""}, ""python_function"": {""loader_module"": ""mlflow.keras"", ""python_version"": ""3.8.0"", ""data"": ""data"", ""env"": ""conda.yaml""}}}]",Fasttext_klearn-01_20_24-19_09_2021,3060e17fd6d711a6de5e5fa9ef6789c143e413b1,main.py,LOCAL,fheinri2,fheinri2
s3://mlflow/12/4c0615af25054acb8306af5b41b48bb6/artifacts,1632155785696,tensorflow.fasttext,12,active,,0.8342123900402565,0.837794840335846,0.3114318251609802,4.170655250549316,0.8023673428094491,0.8868719248546295,0.8735548380377044,0.7815528552258834,,0.0,,0.8335601091384888,0.3175086081027984,None,None,32,None,10,False,0,0.0001,10000,10,whitelist_blacklist,0.0,loss,False,0.9,0.999,0.0,1e-07,0.0001,Adam,,3.0,False,None,42,True,None,False,None,1,0.0,None,1,4c0615af25054acb8306af5b41b48bb6,4c0615af25054acb8306af5b41b48bb6,1630912628994,FINISHED,"[{""run_id"": ""4c0615af25054acb8306af5b41b48bb6"", ""artifact_path"": ""model"", ""utc_time_created"": ""2021-09-06 07:30:29.019961"", ""flavors"": {""keras"": {""keras_module"": ""keras"", ""keras_version"": ""2.5.0"", ""save_format"": ""tf"", ""data"": ""data""}, ""python_function"": {""loader_module"": ""mlflow.keras"", ""python_version"": ""3.8.0"", ""data"": ""data"", ""env"": ""conda.yaml""}}}]",Fasttext_tf-07_17_08-06_09_2021,814d288e7e5d12d076482ccf63885ebb62031bb5,main.py,LOCAL,fheinri2,fheinri2
s3://mlflow/8/eeddb43bc31b4cff86ebc8320b604d06/artifacts,1632014414330,klearn.gru,8,active,0.8390466570854187,0.8331687043387506,,0.3116051256656647,48.434895515441895,0.80694012808846,0.8758945877441479,0.864298669275132,0.7904428209333532,71.0,76.0,0.8329823613166809,,0.3218379914760589,None,32,32,None,1024,False,0,0.0001,10000,10,whitelist_blacklist,0.0,val_loss,False,0.9,0.999,0.0,1e-06,1e-05,AdamWeightDecay,0.01,5.0,True,None,42,True,None,False,None,1,0.0,None,1,eeddb43bc31b4cff86ebc8320b604d06,eeddb43bc31b4cff86ebc8320b604d06,1631972196694,FINISHED,"[{""run_id"": ""eeddb43bc31b4cff86ebc8320b604d06"", ""artifact_path"": ""model"", ""utc_time_created"": ""2021-09-19 01:18:38.466390"", ""flavors"": {""keras"": {""keras_module"": ""keras"", ""keras_version"": ""2.5.0"", ""save_format"": ""tf"", ""data"": ""data""}, ""python_function"": {""loader_module"": ""mlflow.keras"", ""python_version"": ""3.8.0"", ""data"": ""data"", ""env"": ""conda.yaml""}}}]",Gru_klearn-13_36_36-18_09_2021,3060e17fd6d711a6de5e5fa9ef6789c143e413b1,main.py,LOCAL,fheinri2,fheinri2
s3://mlflow/3/294df3362b8449bd8b98a53a215a39c2/artifacts,1632155788279,tensorflow.basic,3,active,,0.8275029819591472,0.8323807716369629,0.3208678066730499,4.045763969421387,0.796457191058625,0.8798643208588043,0.865811770093886,0.7751416430594901,,0.0,,0.8271395564079285,0.3360596895217895,None,None,32,None,10,False,0,0.0001,10000,10,whitelist_blacklist,0.0,loss,False,0.9,0.999,0.0,1e-07,0.0001,Adam,,3.0,False,None,42,True,None,False,None,1,0.0,None,1,294df3362b8449bd8b98a53a215a39c2,294df3362b8449bd8b98a53a215a39c2,1630762449355,FINISHED,"[{""run_id"": ""294df3362b8449bd8b98a53a215a39c2"", ""artifact_path"": ""model"", ""utc_time_created"": ""2021-09-04 13:45:50.971674"", ""flavors"": {""keras"": {""keras_module"": ""keras"", ""keras_version"": ""2.5.0"", ""save_format"": ""tf"", ""data"": ""data""}, ""python_function"": {""loader_module"": ""mlflow.keras"", ""python_version"": ""3.8.0"", ""data"": ""data"", ""env"": ""conda.yaml""}}}]",Basic_tf-13_34_09-04_09_2021,814d288e7e5d12d076482ccf63885ebb62031bb5,main.py,LOCAL,fheinri2,fheinri2
s3://mlflow/6/344a1538cac4421093f4f38395d5fe7b/artifacts,1632413027783,klearn.bigru,6,active,0.9418113231658936,0.827275,,0.1655530482530594,50.6864824295044,0.7499140926272384,0.98205,0.974002462162358,0.6725,13.0,18.0,0.8288999795913696,,0.4116289913654327,None,32,32,None,1024,False,0,0.0001,10000,10,whitelist_blacklist_and_dga_cutted,0.0,val_loss,False,0.9,0.999,0.0,1e-07,1e-05,Adam,,5.0,True,None,42,True,None,False,None,1,0.0,None,1,344a1538cac4421093f4f38395d5fe7b,344a1538cac4421093f4f38395d5fe7b,1632404089894,FINISHED,"[{""run_id"": ""344a1538cac4421093f4f38395d5fe7b"", ""artifact_path"": ""model"", ""utc_time_created"": ""2021-09-23 16:03:06.106713"", ""flavors"": {""keras"": {""keras_module"": ""keras"", ""keras_version"": ""2.5.0"", ""save_format"": ""tf"", ""data"": ""data""}, ""python_function"": {""loader_module"": ""mlflow.keras"", ""python_version"": ""3.8.0"", ""data"": ""data"", ""env"": ""conda.yaml""}}}]",Bigru_klearn-13_34_49-23_09_2021,19f97ae7ebcaf250fc12e0ef2386389bd96be4bc,main.py,LOCAL,fheinri2,fheinri2
s3://mlflow/10/53bb6d9cf39042b89d74ff82601884fe/artifacts,1632155788771,tensorflow.grure,10,active,,0.8267854480393618,0.8108300566673279,0.3651621639728546,10.83533763885498,0.8157572483342338,0.8442485462949157,0.83861187285157,0.809322349783808,,0.0,,0.8271302580833435,0.3413682281970978,None,None,32,None,10,False,0,0.0001,10000,10,whitelist_blacklist,0.0,loss,False,0.9,0.999,0.0,1e-07,0.0001,Adam,,3.0,False,None,42,True,None,False,None,1,0.0,None,1,53bb6d9cf39042b89d74ff82601884fe,53bb6d9cf39042b89d74ff82601884fe,1630908015093,FINISHED,"[{""run_id"": ""53bb6d9cf39042b89d74ff82601884fe"", ""artifact_path"": ""model"", ""utc_time_created"": ""2021-09-06 06:30:13.283702"", ""flavors"": {""keras"": {""keras_module"": ""keras"", ""keras_version"": ""2.5.0"", ""save_format"": ""tf"", ""data"": ""data""}, ""python_function"": {""loader_module"": ""mlflow.keras"", ""python_version"": ""3.8.0"", ""data"": ""data"", ""env"": ""conda.yaml""}}}]",Grure_tf-06_00_14-06_09_2021,814d288e7e5d12d076482ccf63885ebb62031bb5,main.py,LOCAL,fheinri2,fheinri2
s3://mlflow/9/402afc1228c849a8874406ec4511948a/artifacts,1632155787785,tensorflow.gru,9,active,,0.8258069926942001,0.8096993565559387,0.370169997215271,9.739839553833008,0.8139580826493777,0.84467720292232,0.8385853460130541,0.8069367824660802,,0.0,,0.826216995716095,0.3445976972579956,None,None,32,None,10,False,0,0.0001,10000,10,whitelist_blacklist,0.0,loss,False,0.9,0.999,0.0,1e-07,0.0001,Adam,,3.0,False,None,42,True,None,False,None,1,0.0,None,1,402afc1228c849a8874406ec4511948a,402afc1228c849a8874406ec4511948a,1630906105945,FINISHED,"[{""run_id"": ""402afc1228c849a8874406ec4511948a"", ""artifact_path"": ""model"", ""utc_time_created"": ""2021-09-06 05:58:05.552761"", ""flavors"": {""keras"": {""keras_module"": ""keras"", ""keras_version"": ""2.5.0"", ""save_format"": ""tf"", ""data"": ""data""}, ""python_function"": {""loader_module"": ""mlflow.keras"", ""python_version"": ""3.8.0"", ""data"": ""data"", ""env"": ""conda.yaml""}}}]",Gru_tf-05_28_25-06_09_2021,814d288e7e5d12d076482ccf63885ebb62031bb5,main.py,LOCAL,fheinri2,fheinri2
s3://mlflow/4/3918d814703443aeac114fbcc571c509/artifacts,1632155786047,tensorflow.bi,4,active,,0.82,0.9336362481117249,0.1905933022499084,17.756616592407227,0.7407282028135108,0.98465,0.9771134635455494,0.65535,,0.0,,0.8224250078201294,0.419783353805542,None,None,32,None,10,False,0,0.0001,10000,10,whitelist_blacklist_and_dga_cutted,0.0,loss,False,0.9,0.999,0.0,1e-07,0.0001,Adam,,3.0,False,None,42,True,None,False,None,1,0.0,None,1,3918d814703443aeac114fbcc571c509,3918d814703443aeac114fbcc571c509,1631344851578,FINISHED,"[{""run_id"": ""3918d814703443aeac114fbcc571c509"", ""artifact_path"": ""model"", ""utc_time_created"": ""2021-09-11 08:02:46.702435"", ""flavors"": {""keras"": {""keras_module"": ""keras"", ""keras_version"": ""2.5.0"", ""save_format"": ""tf"", ""data"": ""data""}, ""python_function"": {""loader_module"": ""mlflow.keras"", ""python_version"": ""3.8.0"", ""data"": ""data"", ""env"": ""conda.yaml""}}}]",Bi_tf-07_20_51-11_09_2021,814d288e7e5d12d076482ccf63885ebb62031bb5,main.py,LOCAL,fheinri2,fheinri2
s3://mlflow/11/ad1fb500befe4df69ce7c5b6504d3a70/artifacts,1632579887314,klearn.fasttext,11,active,0.7629586458206177,0.817125,,0.5219159722328186,21.6127290725708,0.7380371551885907,0.98325,0.9749157618869336,0.651,,,,,,,32,32,None,1,False,0,0.0001,10000,10,whitelist_blacklist_and_dga_cutted,,,False,0.9,0.999,0.0,1e-07,1e-07,Adam,,,,None,42,True,None,False,None,1,0.0,None,1,ad1fb500befe4df69ce7c5b6504d3a70,ad1fb500befe4df69ce7c5b6504d3a70,1632577422346,FINISHED,"[{""run_id"": ""ad1fb500befe4df69ce7c5b6504d3a70"", ""artifact_path"": ""model"", ""utc_time_created"": ""2021-09-25 13:45:46.684547"", ""flavors"": {""keras"": {""keras_module"": ""keras"", ""keras_version"": ""2.5.0"", ""save_format"": ""tf"", ""data"": ""data""}, ""python_function"": {""loader_module"": ""mlflow.keras"", ""python_version"": ""3.8.0"", ""data"": ""data"", ""env"": ""conda.yaml""}}}]",Fasttext_klearn-13_43_41-25_09_2021,19f97ae7ebcaf250fc12e0ef2386389bd96be4bc,main.py,LOCAL,fheinri2,fheinri2
s3://mlflow/12/0f607ccf137c4e379e658ccf7fdab13f/artifacts,1632155785340,tensorflow.fasttext,12,active,,0.81625,0.9364338517189026,0.1869414448738098,4.174271583557129,0.73690913177017,0.9837,0.9754924071568184,0.6488,,0.0,,0.8183000087738037,0.4373981058597564,None,None,32,None,10,False,0,0.0001,10000,10,whitelist_blacklist_and_dga_cutted,0.0,loss,False,0.9,0.999,0.0,1e-07,0.0001,Adam,,3.0,False,None,42,True,None,False,None,1,0.0,None,1,0f607ccf137c4e379e658ccf7fdab13f,0f607ccf137c4e379e658ccf7fdab13f,1631457041889,FINISHED,"[{""run_id"": ""0f607ccf137c4e379e658ccf7fdab13f"", ""artifact_path"": ""model"", ""utc_time_created"": ""2021-09-12 14:45:44.647884"", ""flavors"": {""keras"": {""keras_module"": ""keras"", ""keras_version"": ""2.5.0"", ""save_format"": ""tf"", ""data"": ""data""}, ""python_function"": {""loader_module"": ""mlflow.keras"", ""python_version"": ""3.8.0"", ""data"": ""data"", ""env"": ""conda.yaml""}}}]",Fasttext_tf-14_30_41-12_09_2021,814d288e7e5d12d076482ccf63885ebb62031bb5,main.py,LOCAL,fheinri2,fheinri2
s3://mlflow/8/aba1e5093fbf4d82bb70377f3d3737fe/artifacts,1632577411422,klearn.gru,8,active,0.9319667816162108,0.8135,,0.1972181499004364,52.582852363586426,0.7346732539860769,0.98145,0.9720674597199216,0.64555,22.0,27.0,0.8158000111579895,,0.452441930770874,None,32,32,None,1024,False,0,0.0001,10000,10,whitelist_blacklist_and_dga_cutted,0.0,val_loss,False,0.9,0.999,0.0,1e-06,1e-05,AdamWeightDecay,0.01,5.0,True,None,42,True,None,False,None,1,0.0,None,1,aba1e5093fbf4d82bb70377f3d3737fe,aba1e5093fbf4d82bb70377f3d3737fe,1632561482556,FINISHED,"[{""run_id"": ""aba1e5093fbf4d82bb70377f3d3737fe"", ""artifact_path"": ""model"", ""utc_time_created"": ""2021-09-25 13:42:51.036771"", ""flavors"": {""keras"": {""keras_module"": ""keras"", ""keras_version"": ""2.5.0"", ""save_format"": ""tf"", ""data"": ""data""}, ""python_function"": {""loader_module"": ""mlflow.keras"", ""python_version"": ""3.8.0"", ""data"": ""data"", ""env"": ""conda.yaml""}}}]",Gru_klearn-09_18_02-25_09_2021,19f97ae7ebcaf250fc12e0ef2386389bd96be4bc,main.py,LOCAL,fheinri2,fheinri2
s3://mlflow/10/840f47b42b444576a41680ada2bad5d2/artifacts,1632155789008,tensorflow.grure,10,active,,0.802475,0.919998824596405,0.2270051389932632,10.838953971862791,0.7220081470879666,0.9837,0.9744333777742922,0.62125,,0.0,,0.8043000102043152,0.4854153394699096,None,None,32,None,10,False,0,0.0001,10000,10,whitelist_blacklist_and_dga_cutted,0.0,loss,False,0.9,0.999,0.0,1e-07,0.0001,Adam,,3.0,False,None,42,True,None,False,None,1,0.0,None,1,840f47b42b444576a41680ada2bad5d2,840f47b42b444576a41680ada2bad5d2,1631452577311,FINISHED,"[{""run_id"": ""840f47b42b444576a41680ada2bad5d2"", ""artifact_path"": ""model"", ""utc_time_created"": ""2021-09-12 13:48:29.311683"", ""flavors"": {""keras"": {""keras_module"": ""keras"", ""keras_version"": ""2.5.0"", ""save_format"": ""tf"", ""data"": ""data""}, ""python_function"": {""loader_module"": ""mlflow.keras"", ""python_version"": ""3.8.0"", ""data"": ""data"", ""env"": ""conda.yaml""}}}]",Grure_tf-13_16_17-12_09_2021,814d288e7e5d12d076482ccf63885ebb62031bb5,main.py,LOCAL,fheinri2,fheinri2
s3://mlflow/3/1201191f137f4b559f39d5198b5a0603/artifacts,1632155787906,tensorflow.basic,3,active,,0.8015,0.9317305088043212,0.1963154077529907,4.049380302429199,0.7205882352941176,0.9849,0.976152874289324,0.6181,,0.0,,0.8028249740600586,0.4723989367485046,None,None,32,None,10,False,0,0.0001,10000,10,whitelist_blacklist_and_dga_cutted,0.0,loss,False,0.9,0.999,0.0,1e-07,0.0001,Adam,,3.0,False,None,42,True,None,False,None,1,0.0,None,1,1201191f137f4b559f39d5198b5a0603,1201191f137f4b559f39d5198b5a0603,1631344055397,FINISHED,"[{""run_id"": ""1201191f137f4b559f39d5198b5a0603"", ""artifact_path"": ""model"", ""utc_time_created"": ""2021-09-11 07:20:20.081495"", ""flavors"": {""keras"": {""keras_module"": ""keras"", ""keras_version"": ""2.5.0"", ""save_format"": ""tf"", ""data"": ""data""}, ""python_function"": {""loader_module"": ""mlflow.keras"", ""python_version"": ""3.8.0"", ""data"": ""data"", ""env"": ""conda.yaml""}}}]",Basic_tf-07_07_35-11_09_2021,814d288e7e5d12d076482ccf63885ebb62031bb5,main.py,LOCAL,fheinri2,fheinri2
s3://mlflow/6/ec35e674fd4d4da3a2d97a0a2b3ebaa5/artifacts,1632036098375,klearn.bigru,6,active,0.9133034944534302,0.7978418070672432,,0.2282129377126693,57.405460357666016,0.9588022508038584,0.6224280602355747,0.7204884105960265,0.9732555538989116,11.0,16.0,0.7969937920570374,,0.4641470313072204,None,32,32,None,1024,False,0,0.0001,10000,10,whitelist_blacklist_unbalanced,0.0,val_loss,False,0.9,0.999,0.0,1e-07,1e-05,Adam,,5.0,True,None,42,True,None,False,None,1,0.0,None,1,ec35e674fd4d4da3a2d97a0a2b3ebaa5,ec35e674fd4d4da3a2d97a0a2b3ebaa5,1632017205757,FINISHED,"[{""run_id"": ""ec35e674fd4d4da3a2d97a0a2b3ebaa5"", ""artifact_path"": ""model"", ""utc_time_created"": ""2021-09-19 07:20:09.329599"", ""flavors"": {""keras"": {""keras_module"": ""keras"", ""keras_version"": ""2.5.0"", ""save_format"": ""tf"", ""data"": ""data""}, ""python_function"": {""loader_module"": ""mlflow.keras"", ""python_version"": ""3.8.0"", ""data"": ""data"", ""env"": ""conda.yaml""}}}]",Bigru_klearn-02_06_45-19_09_2021,3060e17fd6d711a6de5e5fa9ef6789c143e413b1,main.py,LOCAL,fheinri2,fheinri2
s3://mlflow/9/1443d5137fdf481e8532e03fffa80994/artifacts,1632155787302,tensorflow.gru,9,active,,0.7945,0.9183346033096312,0.2298578768968582,9.742734909057615,0.7138086249455496,0.9832,0.9730163829103758,0.6058,,0.0,,0.7973250150680542,0.4970791041851043,None,None,32,None,10,False,0,0.0001,10000,10,whitelist_blacklist_and_dga_cutted,0.0,loss,False,0.9,0.999,0.0,1e-07,0.0001,Adam,,3.0,False,None,42,True,None,False,None,1,0.0,None,1,1443d5137fdf481e8532e03fffa80994,1443d5137fdf481e8532e03fffa80994,1631450591716,FINISHED,"[{""run_id"": ""1443d5137fdf481e8532e03fffa80994"", ""artifact_path"": ""model"", ""utc_time_created"": ""2021-09-12 13:14:56.130495"", ""flavors"": {""keras"": {""keras_module"": ""keras"", ""keras_version"": ""2.5.0"", ""save_format"": ""tf"", ""data"": ""data""}, ""python_function"": {""loader_module"": ""mlflow.keras"", ""python_version"": ""3.8.0"", ""data"": ""data"", ""env"": ""conda.yaml""}}}]",Gru_tf-12_43_11-12_09_2021,814d288e7e5d12d076482ccf63885ebb62031bb5,main.py,LOCAL,fheinri2,fheinri2
s3://mlflow/4/b444188c8cdf4faba4205aa0ec1254f3/artifacts,1632155786277,tensorflow.bi,4,active,,0.7829040554644401,0.8993307948112488,0.2567921578884125,17.749433517456055,0.9688938312791524,0.5845758163113165,0.7025580805721987,0.9812322946175638,,0.0,,0.7822983264923096,0.4640613794326782,None,None,32,None,10,False,0,0.0001,10000,10,whitelist_blacklist_unbalanced,0.0,loss,False,0.9,0.999,0.0,1e-07,0.0001,Adam,,3.0,False,None,42,True,None,False,None,1,0.0,None,1,b444188c8cdf4faba4205aa0ec1254f3,b444188c8cdf4faba4205aa0ec1254f3,1630920477771,FINISHED,"[{""run_id"": ""b444188c8cdf4faba4205aa0ec1254f3"", ""artifact_path"": ""model"", ""utc_time_created"": ""2021-09-06 11:09:21.468815"", ""flavors"": {""keras"": {""keras_module"": ""keras"", ""keras_version"": ""2.5.0"", ""save_format"": ""tf"", ""data"": ""data""}, ""python_function"": {""loader_module"": ""mlflow.keras"", ""python_version"": ""3.8.0"", ""data"": ""data"", ""env"": ""conda.yaml""}}}]",Bi_tf-09_27_57-06_09_2021,814d288e7e5d12d076482ccf63885ebb62031bb5,main.py,LOCAL,fheinri2,fheinri2
s3://mlflow/12/2abbfda8e5de485e81da8562e3688753/artifacts,1632155785450,tensorflow.fasttext,12,active,,0.782316982257343,0.9051955342292786,0.2547939717769623,4.167088508605957,0.9610701893224568,0.5884710004472938,0.7034435520696232,0.9761629640673922,,0.0,,0.78225177526474,0.4698788225650787,None,None,32,None,10,False,0,0.0001,10000,10,whitelist_blacklist_unbalanced,0.0,loss,False,0.9,0.999,0.0,1e-07,0.0001,Adam,,3.0,False,None,42,True,None,False,None,1,0.0,None,1,2abbfda8e5de485e81da8562e3688753,2abbfda8e5de485e81da8562e3688753,1631088790540,FINISHED,"[{""run_id"": ""2abbfda8e5de485e81da8562e3688753"", ""artifact_path"": ""model"", ""utc_time_created"": ""2021-09-08 08:49:15.702091"", ""flavors"": {""keras"": {""keras_module"": ""keras"", ""keras_version"": ""2.5.0"", ""save_format"": ""tf"", ""data"": ""data""}, ""python_function"": {""loader_module"": ""mlflow.keras"", ""python_version"": ""3.8.0"", ""data"": ""data"", ""env"": ""conda.yaml""}}}]",Fasttext_tf-08_13_10-08_09_2021,814d288e7e5d12d076482ccf63885ebb62031bb5,main.py,LOCAL,fheinri2,fheinri2
s3://mlflow/11/e0e64a7371394e3883cd7bb9ffb3f172/artifacts,1632201740360,klearn.fasttext,11,active,0.7460278868675232,0.7821119725659759,,0.5600866079330444,28.331707000732425,0.9597558012392176,0.5889182943193678,0.7034871215787493,0.975305650812584,,,,,,,32,32,None,1,False,0,0.0001,10000,10,whitelist_blacklist_unbalanced,,,False,0.9,0.999,0.0,1e-07,1e-07,Adam,,,,None,42,True,None,False,None,1,0.0,None,1,e0e64a7371394e3883cd7bb9ffb3f172,e0e64a7371394e3883cd7bb9ffb3f172,1632197921009,FINISHED,"[{""run_id"": ""e0e64a7371394e3883cd7bb9ffb3f172"", ""artifact_path"": ""model"", ""utc_time_created"": ""2021-09-21 04:23:17.862535"", ""flavors"": {""keras"": {""keras_module"": ""keras"", ""keras_version"": ""2.5.0"", ""save_format"": ""tf"", ""data"": ""data""}, ""python_function"": {""loader_module"": ""mlflow.keras"", ""python_version"": ""3.8.0"", ""data"": ""data"", ""env"": ""conda.yaml""}}}]",Fasttext_klearn-04_18_40-21_09_2021,19f97ae7ebcaf250fc12e0ef2386389bd96be4bc,main.py,LOCAL,fheinri2,fheinri2
s3://mlflow/8/7fa5a32f801d4b1299a3ad7d9ea0f05b/artifacts,1632197910805,klearn.gru,8,active,0.9028024673461914,0.7805557626360519,,0.2637505829334259,59.30183029174805,0.9564848227552536,0.5878559713731922,0.7025089123562251,0.9732555538989116,12.0,17.0,0.7803694009780884,,0.5172708630561829,None,32,32,None,1024,False,0,0.0001,10000,10,whitelist_blacklist_unbalanced,0.0,val_loss,False,0.9,0.999,0.0,1e-06,1e-05,AdamWeightDecay,0.01,5.0,True,None,42,True,None,False,None,1,0.0,None,1,7fa5a32f801d4b1299a3ad7d9ea0f05b,7fa5a32f801d4b1299a3ad7d9ea0f05b,1632174110555,FINISHED,"[{""run_id"": ""7fa5a32f801d4b1299a3ad7d9ea0f05b"", ""artifact_path"": ""model"", ""utc_time_created"": ""2021-09-21 04:17:00.998199"", ""flavors"": {""keras"": {""keras_module"": ""keras"", ""keras_version"": ""2.5.0"", ""save_format"": ""tf"", ""data"": ""data""}, ""python_function"": {""loader_module"": ""mlflow.keras"", ""python_version"": ""3.8.0"", ""data"": ""data"", ""env"": ""conda.yaml""}}}]",Gru_klearn-21_41_50-20_09_2021,19f97ae7ebcaf250fc12e0ef2386389bd96be4bc,main.py,LOCAL,fheinri2,fheinri2
s3://mlflow/6/674d8dd25d41481fa30fe3bf0e380499/artifacts,1632244704884,klearn.bigru,6,active,0.8786555528640747,0.7763781404217138,,0.2807054817676544,59.58672523498535,0.9457949842834852,0.5863615971287572,0.7002692131863666,0.9663946837146704,7.0,12.0,0.7756491303443909,,0.4318161904811859,None,32,32,None,1024,False,0,0.0001,10000,10,whitelist_blacklist_and_dga,0.0,val_loss,False,0.9,0.999,0.0,1e-07,1e-05,Adam,,5.0,True,None,42,True,None,False,None,1,0.0,None,1,674d8dd25d41481fa30fe3bf0e380499,674d8dd25d41481fa30fe3bf0e380499,1632229569116,FINISHED,"[{""run_id"": ""674d8dd25d41481fa30fe3bf0e380499"", ""artifact_path"": ""model"", ""utc_time_created"": ""2021-09-21 17:16:29.840522"", ""flavors"": {""keras"": {""keras_module"": ""keras"", ""keras_version"": ""2.5.0"", ""save_format"": ""tf"", ""data"": ""data""}, ""python_function"": {""loader_module"": ""mlflow.keras"", ""python_version"": ""3.8.0"", ""data"": ""data"", ""env"": ""conda.yaml""}}}]",Bigru_klearn-13_06_08-21_09_2021,19f97ae7ebcaf250fc12e0ef2386389bd96be4bc,main.py,LOCAL,fheinri2,fheinri2
s3://mlflow/10/994735216efe4b5b9490da34c297fff6/artifacts,1632155788539,tensorflow.grure,10,active,,0.773818398687938,0.8966560959815979,0.2798984348773956,10.83177089691162,0.9598147220831248,0.5715670195318324,0.6949575371549894,0.9760697778440436,,0.0,,0.7728492617607117,0.5264179110527039,None,None,32,None,10,False,0,0.0001,10000,10,whitelist_blacklist_unbalanced,0.0,loss,False,0.9,0.999,0.0,1e-07,0.0001,Adam,,3.0,False,None,42,True,None,False,None,1,0.0,None,1,994735216efe4b5b9490da34c297fff6,994735216efe4b5b9490da34c297fff6,1631080105090,FINISHED,"[{""run_id"": ""994735216efe4b5b9490da34c297fff6"", ""artifact_path"": ""model"", ""utc_time_created"": ""2021-09-08 07:06:04.600071"", ""flavors"": {""keras"": {""keras_module"": ""keras"", ""keras_version"": ""2.5.0"", ""save_format"": ""tf"", ""data"": ""data""}, ""python_function"": {""loader_module"": ""mlflow.keras"", ""python_version"": ""3.8.0"", ""data"": ""data"", ""env"": ""conda.yaml""}}}]",Grure_tf-05_48_24-08_09_2021,814d288e7e5d12d076482ccf63885ebb62031bb5,main.py,LOCAL,fheinri2,fheinri2
s3://mlflow/4/ea65059c0a554a8e93a76f147e18c7c7/artifacts,1632155786438,tensorflow.bi,4,active,,0.7729292844324809,0.8651584386825562,0.3035277426242828,17.74954891204834,0.9540948426675376,0.5734494167788246,0.6950944530741093,0.9724091520861372,,0.0,,0.7731886506080627,0.4343887269496918,None,None,32,None,10,False,0,0.0001,10000,10,whitelist_blacklist_and_dga,0.0,loss,False,0.9,0.999,0.0,1e-07,0.0001,Adam,,3.0,False,None,42,True,None,False,None,1,0.0,None,1,ea65059c0a554a8e93a76f147e18c7c7,ea65059c0a554a8e93a76f147e18c7c7,1631136993624,FINISHED,"[{""run_id"": ""ea65059c0a554a8e93a76f147e18c7c7"", ""artifact_path"": ""model"", ""utc_time_created"": ""2021-09-08 23:20:09.900450"", ""flavors"": {""keras"": {""keras_module"": ""keras"", ""keras_version"": ""2.5.0"", ""save_format"": ""tf"", ""data"": ""data""}, ""python_function"": {""loader_module"": ""mlflow.keras"", ""python_version"": ""3.8.0"", ""data"": ""data"", ""env"": ""conda.yaml""}}}]",Bi_tf-21_36_33-08_09_2021,814d288e7e5d12d076482ccf63885ebb62031bb5,main.py,LOCAL,fheinri2,fheinri2
s3://mlflow/11/1911611b09ec4b289ce7540c713c0ee6/artifacts,1632404079711,klearn.fasttext,11,active,0.7105415463447571,0.7701954351727232,,0.6064419150352478,30.51297187805176,0.9446508086657592,0.5740242261103634,0.6940581796945012,0.966366644235083,,,,,,,32,32,None,1,False,0,0.0001,10000,10,whitelist_blacklist_and_dga,,,False,0.9,0.999,0.0,1e-07,1e-07,Adam,,,,None,42,True,None,False,None,1,0.0,None,1,1911611b09ec4b289ce7540c713c0ee6,1911611b09ec4b289ce7540c713c0ee6,1632399113896,FINISHED,"[{""run_id"": ""1911611b09ec4b289ce7540c713c0ee6"", ""artifact_path"": ""model"", ""utc_time_created"": ""2021-09-23 12:16:39.195365"", ""flavors"": {""keras"": {""keras_module"": ""keras"", ""keras_version"": ""2.5.0"", ""save_format"": ""tf"", ""data"": ""data""}, ""python_function"": {""loader_module"": ""mlflow.keras"", ""python_version"": ""3.8.0"", ""data"": ""data"", ""env"": ""conda.yaml""}}}]",Fasttext_klearn-12_11_53-23_09_2021,19f97ae7ebcaf250fc12e0ef2386389bd96be4bc,main.py,LOCAL,fheinri2,fheinri2
s3://mlflow/12/00f25a35764244dbac55623ebc93f748/artifacts,1632155785576,tensorflow.fasttext,12,active,,0.7684079183490354,0.8718357682228088,0.303833395242691,4.167203903198242,0.9451497395833334,0.5698884028712428,0.6921262845215157,0.9669274338268282,,0.0,,0.7680083513259888,0.4327041208744049,None,None,32,None,10,False,0,0.0001,10000,10,whitelist_blacklist_and_dga,0.0,loss,False,0.9,0.999,0.0,1e-07,0.0001,Adam,,3.0,False,None,42,True,None,False,None,1,0.0,None,1,00f25a35764244dbac55623ebc93f748,00f25a35764244dbac55623ebc93f748,1631330517457,FINISHED,"[{""run_id"": ""00f25a35764244dbac55623ebc93f748"", ""artifact_path"": ""model"", ""utc_time_created"": ""2021-09-11 03:58:01.454285"", ""flavors"": {""keras"": {""keras_module"": ""keras"", ""keras_version"": ""2.5.0"", ""save_format"": ""tf"", ""data"": ""data""}, ""python_function"": {""loader_module"": ""mlflow.keras"", ""python_version"": ""3.8.0"", ""data"": ""data"", ""env"": ""conda.yaml""}}}]",Fasttext_tf-03_21_57-11_09_2021,814d288e7e5d12d076482ccf63885ebb62031bb5,main.py,LOCAL,fheinri2,fheinri2
s3://mlflow/9/c2b4f10bf5224793adfbfa06f89b8401/artifacts,1632155787184,tensorflow.gru,9,active,,0.7650029819591472,0.8934851288795471,0.2847168147563934,9.735551834106444,0.959062439465358,0.5536379901595349,0.686263721868532,0.9763679737587596,,0.0,,0.7637263536453247,0.5456541776657104,None,None,32,None,10,False,0,0.0001,10000,10,whitelist_blacklist_unbalanced,0.0,loss,False,0.9,0.999,0.0,1e-07,0.0001,Adam,,3.0,False,None,42,True,None,False,None,1,0.0,None,1,c2b4f10bf5224793adfbfa06f89b8401,c2b4f10bf5224793adfbfa06f89b8401,1631075561858,FINISHED,"[{""run_id"": ""c2b4f10bf5224793adfbfa06f89b8401"", ""artifact_path"": ""model"", ""utc_time_created"": ""2021-09-08 05:46:15.715159"", ""flavors"": {""keras"": {""keras_module"": ""keras"", ""keras_version"": ""2.5.0"", ""save_format"": ""tf"", ""data"": ""data""}, ""python_function"": {""loader_module"": ""mlflow.keras"", ""python_version"": ""3.8.0"", ""data"": ""data"", ""env"": ""conda.yaml""}}}]",Gru_tf-04_32_41-08_09_2021,814d288e7e5d12d076482ccf63885ebb62031bb5,main.py,LOCAL,fheinri2,fheinri2
s3://mlflow/8/cf5c4ea959af4c18b5c246fe02f2c146/artifacts,1632399103623,klearn.gru,8,active,0.8707320094108582,0.7639426312247645,,0.309226244688034,61.48309516906738,0.9456503728251864,0.5600745850157021,0.6874943980241208,0.9678106774338268,16.0,21.0,0.7633748054504395,,0.4690448045730591,None,32,32,None,1024,False,0,0.0001,10000,10,whitelist_blacklist_and_dga,0.0,val_loss,False,0.9,0.999,0.0,1e-06,1e-05,AdamWeightDecay,0.01,5.0,True,None,42,True,None,False,None,1,0.0,None,1,cf5c4ea959af4c18b5c246fe02f2c146,cf5c4ea959af4c18b5c246fe02f2c146,1632369026605,FINISHED,"[{""run_id"": ""cf5c4ea959af4c18b5c246fe02f2c146"", ""artifact_path"": ""model"", ""utc_time_created"": ""2021-09-23 12:09:48.606855"", ""flavors"": {""keras"": {""keras_module"": ""keras"", ""keras_version"": ""2.5.0"", ""save_format"": ""tf"", ""data"": ""data""}, ""python_function"": {""loader_module"": ""mlflow.keras"", ""python_version"": ""3.8.0"", ""data"": ""data"", ""env"": ""conda.yaml""}}}]",Gru_klearn-03_50_26-23_09_2021,19f97ae7ebcaf250fc12e0ef2386389bd96be4bc,main.py,LOCAL,fheinri2,fheinri2
s3://mlflow/3/94a66aedef3944b8a812401c87e7f2e7/artifacts,1632155788422,tensorflow.basic,3,active,,0.7635399582525719,0.8988803625106812,0.2620385885238647,4.042197227478027,0.9556013789992588,0.5527620396600567,0.6853883972468043,0.9743178768450872,,0.0,,0.762412428855896,0.5179983973503113,None,None,32,None,10,False,0,0.0001,10000,10,whitelist_blacklist_unbalanced,0.0,loss,False,0.9,0.999,0.0,1e-07,0.0001,Adam,,3.0,False,None,42,True,None,False,None,1,0.0,None,1,94a66aedef3944b8a812401c87e7f2e7,94a66aedef3944b8a812401c87e7f2e7,1630918606284,FINISHED,"[{""run_id"": ""94a66aedef3944b8a812401c87e7f2e7"", ""artifact_path"": ""model"", ""utc_time_created"": ""2021-09-06 09:27:00.590882"", ""flavors"": {""keras"": {""keras_module"": ""keras"", ""keras_version"": ""2.5.0"", ""save_format"": ""tf"", ""data"": ""data""}, ""python_function"": {""loader_module"": ""mlflow.keras"", ""python_version"": ""3.8.0"", ""data"": ""data"", ""env"": ""conda.yaml""}}}]",Basic_tf-08_56_45-06_09_2021,814d288e7e5d12d076482ccf63885ebb62031bb5,main.py,LOCAL,fheinri2,fheinri2
s3://mlflow/10/8854aea9a3bc4ca4bb90e9aae79adbdf/artifacts,1632155788891,tensorflow.grure,10,active,,0.757872083894123,0.862788736820221,0.3270021677017212,10.831886291503906,0.9459787115389278,0.5469801480484522,0.6813722106633272,0.9687640197397936,,0.0,,0.7578370571136475,0.4711532890796661,None,None,32,None,10,False,0,0.0001,10000,10,whitelist_blacklist_and_dga,0.0,loss,False,0.9,0.999,0.0,1e-07,0.0001,Adam,,3.0,False,None,42,True,None,False,None,1,0.0,None,1,8854aea9a3bc4ca4bb90e9aae79adbdf,8854aea9a3bc4ca4bb90e9aae79adbdf,1631320546246,FINISHED,"[{""run_id"": ""8854aea9a3bc4ca4bb90e9aae79adbdf"", ""artifact_path"": ""model"", ""utc_time_created"": ""2021-09-11 01:54:11.119497"", ""flavors"": {""keras"": {""keras_module"": ""keras"", ""keras_version"": ""2.5.0"", ""save_format"": ""tf"", ""data"": ""data""}, ""python_function"": {""loader_module"": ""mlflow.keras"", ""python_version"": ""3.8.0"", ""data"": ""data"", ""env"": ""conda.yaml""}}}]",Grure_tf-00_35_45-11_09_2021,814d288e7e5d12d076482ccf63885ebb62031bb5,main.py,LOCAL,fheinri2,fheinri2
s3://mlflow/9/186fc74b50e04725b507066863f650ca/artifacts,1632155787547,tensorflow.gru,9,active,,0.7560775572005384,0.8591563701629639,0.3316545188426971,9.736388206481934,0.9442971467490452,0.5442603185284881,0.6798759170810971,0.9678947958725886,,0.0,,0.7560144662857056,0.4798538088798523,None,None,32,None,10,False,0,0.0001,10000,10,whitelist_blacklist_and_dga,0.0,loss,False,0.9,0.999,0.0,1e-07,0.0001,Adam,,3.0,False,None,42,True,None,False,None,1,0.0,None,1,186fc74b50e04725b507066863f650ca,186fc74b50e04725b507066863f650ca,1631315759984,FINISHED,"[{""run_id"": ""186fc74b50e04725b507066863f650ca"", ""artifact_path"": ""model"", ""utc_time_created"": ""2021-09-11 00:33:08.998822"", ""flavors"": {""keras"": {""keras_module"": ""keras"", ""keras_version"": ""2.5.0"", ""save_format"": ""tf"", ""data"": ""data""}, ""python_function"": {""loader_module"": ""mlflow.keras"", ""python_version"": ""3.8.0"", ""data"": ""data"", ""env"": ""conda.yaml""}}}]",Gru_tf-23_15_59-10_09_2021,814d288e7e5d12d076482ccf63885ebb62031bb5,main.py,LOCAL,fheinri2,fheinri2
s3://mlflow/3/fcec424bb9fe4e62880199a751653b11/artifacts,1632155788053,tensorflow.basic,3,active,,0.7505537797218483,0.8653557300567627,0.3103798031806946,4.0423126220703125,0.9392003145658744,0.535792395693136,0.6752709262982396,0.9653151637505608,,0.0,,0.7509533166885376,0.474430501461029,None,None,32,None,10,False,0,0.0001,10000,10,whitelist_blacklist_and_dga,0.0,loss,False,0.9,0.999,0.0,1e-07,0.0001,Adam,,3.0,False,None,42,True,None,False,None,1,0.0,None,1,fcec424bb9fe4e62880199a751653b11,fcec424bb9fe4e62880199a751653b11,1631135041696,FINISHED,"[{""run_id"": ""fcec424bb9fe4e62880199a751653b11"", ""artifact_path"": ""model"", ""utc_time_created"": ""2021-09-08 21:35:24.080218"", ""flavors"": {""keras"": {""keras_module"": ""keras"", ""keras_version"": ""2.5.0"", ""save_format"": ""tf"", ""data"": ""data""}, ""python_function"": {""loader_module"": ""mlflow.keras"", ""python_version"": ""3.8.0"", ""data"": ""data"", ""env"": ""conda.yaml""}}}]",Basic_tf-21_04_01-08_09_2021,814d288e7e5d12d076482ccf63885ebb62031bb5,main.py,LOCAL,fheinri2,fheinri2
s3://mlflow/7/8f64fe0c80784dbb9d9571985e4f5b13/artifacts,1632369015245,klearn.distilbert,7,active,0.7655053734779358,0.5,,0.5425192713737488,255.7661476135254,0.0,0.0,0.5,1.0,1.0,6.0,0.5,,0.9082511067390442,None,None,32,None,1024,False,0,0.0001,10000,10,whitelist_blacklist_and_dga,0.0,val_loss,False,0.9,0.999,0.0,1e-07,1e-05,Adam,,5.0,True,None,42,True,152058,False,None,1,0.0,4458,1,8f64fe0c80784dbb9d9571985e4f5b13,8f64fe0c80784dbb9d9571985e4f5b13,1632244716046,FINISHED,"[{""run_id"": ""8f64fe0c80784dbb9d9571985e4f5b13"", ""artifact_path"": ""model"", ""utc_time_created"": ""2021-09-23 02:32:10.726434"", ""flavors"": {""keras"": {""keras_module"": ""keras"", ""keras_version"": ""2.5.0"", ""save_format"": ""tf"", ""data"": ""data""}, ""python_function"": {""loader_module"": ""mlflow.keras"", ""python_version"": ""3.8.0"", ""data"": ""data"", ""env"": ""conda.yaml""}}}]",Distilbert_klearn-17_18_35-21_09_2021,19f97ae7ebcaf250fc12e0ef2386389bd96be4bc,main.py,LOCAL,fheinri2,fheinri2
s3://mlflow/7/826f817f4ada4e279c8124e42bfbbf19/artifacts,1632174099671,klearn.distilbert,7,active,0.8200806379318237,0.5,,0.4723376929759979,255.7661476135254,0.0,0.0,0.5,1.0,2.0,7.0,0.5,,0.9792242646217346,None,None,32,None,1024,False,0,0.0001,10000,10,whitelist_blacklist_unbalanced,0.0,val_loss,False,0.9,0.999,0.0,1e-07,1e-05,Adam,,5.0,True,None,42,True,149113,False,None,1,0.0,3354,1,826f817f4ada4e279c8124e42bfbbf19,826f817f4ada4e279c8124e42bfbbf19,1632036109695,FINISHED,"[{""run_id"": ""826f817f4ada4e279c8124e42bfbbf19"", ""artifact_path"": ""model"", ""utc_time_created"": ""2021-09-20 20:41:58.748889"", ""flavors"": {""keras"": {""keras_module"": ""keras"", ""keras_version"": ""2.5.0"", ""save_format"": ""tf"", ""data"": ""data""}, ""python_function"": {""loader_module"": ""mlflow.keras"", ""python_version"": ""3.8.0"", ""data"": ""data"", ""env"": ""conda.yaml""}}}]",Distilbert_klearn-07_21_49-19_09_2021,3060e17fd6d711a6de5e5fa9ef6789c143e413b1,main.py,LOCAL,fheinri2,fheinri2
s3://mlflow/7/e8abc1869f2f4a1eab5dfc3d8e6f5101/artifacts,1631972186145,klearn.distilbert,7,active,0.4999720454216003,0.5,,0.6929910182952881,255.7661476135254,0.0,0.0,0.5,1.0,6.0,11.0,0.5,,0.6931360363960266,None,None,32,None,1024,False,0,0.0001,10000,10,whitelist_blacklist,0.0,val_loss,False,0.9,0.999,0.0,1e-07,1e-05,Adam,,5.0,True,None,42,True,53657,False,None,1,0.0,3354,1,e8abc1869f2f4a1eab5dfc3d8e6f5101,e8abc1869f2f4a1eab5dfc3d8e6f5101,1631882864569,FINISHED,"[{""run_id"": ""e8abc1869f2f4a1eab5dfc3d8e6f5101"", ""artifact_path"": ""model"", ""utc_time_created"": ""2021-09-18 12:34:43.946238"", ""flavors"": {""keras"": {""keras_module"": ""keras"", ""keras_version"": ""2.5.0"", ""save_format"": ""tf"", ""data"": ""data""}, ""python_function"": {""loader_module"": ""mlflow.keras"", ""python_version"": ""3.8.0"", ""data"": ""data"", ""env"": ""conda.yaml""}}}]",Distilbert_klearn-12_47_44-17_09_2021,3060e17fd6d711a6de5e5fa9ef6789c143e413b1,main.py,LOCAL,fheinri2,fheinri2
s3://mlflow/13/96668792d424453a8dee5e03257877d5/artifacts,1632155786942,tensorflow.mobilebert,13,active,0.5117512345314026,0.453993961532727,,2710538.25,437.6341390609741,0.3997237681277166,0.1833904875503205,0.4701493439748473,0.7245974355151334,,0.0,0.4536491632461548,,82189.6328125,None,None,32,None,1,False,0,0.0001,10000,10,whitelist_blacklist_unbalanced,0.0,loss,False,0.9,0.999,0.0,1e-06,,AdamWeightDecay,0.01,3.0,False,None,42,True,None,False,None,1,0.0,None,1,96668792d424453a8dee5e03257877d5,96668792d424453a8dee5e03257877d5,1631091014763,FINISHED,"[{""run_id"": ""96668792d424453a8dee5e03257877d5"", ""artifact_path"": ""model"", ""utc_time_created"": ""2021-09-08 11:24:07.314946"", ""flavors"": {""keras"": {""keras_module"": ""keras"", ""keras_version"": ""2.5.0"", ""save_format"": ""tf"", ""data"": ""data""}, ""python_function"": {""loader_module"": ""mlflow.keras"", ""python_version"": ""3.8.0"", ""data"": ""data"", ""env"": ""conda.yaml""}}}]",Mobilebert_tf-08_50_14-08_09_2021,814d288e7e5d12d076482ccf63885ebb62031bb5,main.py,LOCAL,fheinri2,fheinri2
s3://mlflow/13/a2df91ca33314e8896dbb490478e2aaf/artifacts,1632155786554,tensorflow.mobilebert,13,active,0.4985833466053009,0.448175,,2797776.25,437.6338949203491,0.4075956138004814,0.2286,0.4639891602682138,0.66775,,0.0,0.4526000022888183,,73001.890625,None,None,32,None,1,False,0,0.0001,10000,10,whitelist_blacklist_cutted,0.0,loss,False,0.9,0.999,0.0,1e-06,,AdamWeightDecay,0.01,3.0,False,None,42,True,None,False,None,1,0.0,None,1,a2df91ca33314e8896dbb490478e2aaf,a2df91ca33314e8896dbb490478e2aaf,1631132944750,FINISHED,"[{""run_id"": ""a2df91ca33314e8896dbb490478e2aaf"", ""artifact_path"": ""model"", ""utc_time_created"": ""2021-09-08 20:52:45.680270"", ""flavors"": {""keras"": {""keras_module"": ""keras"", ""keras_version"": ""2.5.0"", ""save_format"": ""tf"", ""data"": ""data""}, ""python_function"": {""loader_module"": ""mlflow.keras"", ""python_version"": ""3.8.0"", ""data"": ""data"", ""env"": ""conda.yaml""}}}]",Mobilebert_tf-20_29_04-08_09_2021,814d288e7e5d12d076482ccf63885ebb62031bb5,main.py,LOCAL,fheinri2,fheinri2
s3://mlflow/13/51f39cfecb154f8bafbfa12e9ddf00f3/artifacts,1632155787067,tensorflow.mobilebert,13,active,0.4991551041603088,0.4384132249888176,,2787848.5,437.7637920379639,0.3742723433398014,0.1833345758163113,0.4592183045576275,0.693491874161324,,0.0,0.4367545247077942,,83114.0625,None,None,32,None,1,False,0,0.0001,10000,10,whitelist_blacklist,0.0,loss,False,0.9,0.999,0.0,1e-06,,AdamWeightDecay,0.01,3.0,False,None,42,True,None,False,None,1,0.0,None,1,51f39cfecb154f8bafbfa12e9ddf00f3,51f39cfecb154f8bafbfa12e9ddf00f3,1630913488125,FINISHED,"[{""run_id"": ""51f39cfecb154f8bafbfa12e9ddf00f3"", ""artifact_path"": ""model"", ""utc_time_created"": ""2021-09-06 08:31:36.719560"", ""flavors"": {""keras"": {""keras_module"": ""keras"", ""keras_version"": ""2.5.0"", ""save_format"": ""tf"", ""data"": ""data""}, ""python_function"": {""loader_module"": ""mlflow.keras"", ""python_version"": ""3.8.0"", ""data"": ""data"", ""env"": ""conda.yaml""}}}]",Mobilebert_tf-07_31_27-06_09_2021,814d288e7e5d12d076482ccf63885ebb62031bb5,main.py,LOCAL,fheinri2,fheinri2
s3://mlflow/13/2ca277b9e8f54365ab9c302af646fe51/artifacts,1632155786676,tensorflow.mobilebert,13,active,0.5090628862380981,0.4352147824136384,,2720957.5,437.76398754119873,0.3472194670369635,0.1472353073126962,0.4588915576905969,0.7231942575145806,,0.0,0.4350185096263885,,90240.484375,None,None,32,None,1,False,0,0.0001,10000,10,whitelist_blacklist_and_dga,0.0,loss,False,0.9,0.999,0.0,1e-06,,AdamWeightDecay,0.01,3.0,False,None,42,True,None,False,None,1,0.0,None,1,2ca277b9e8f54365ab9c302af646fe51,2ca277b9e8f54365ab9c302af646fe51,1631332754003,FINISHED,"[{""run_id"": ""2ca277b9e8f54365ab9c302af646fe51"", ""artifact_path"": ""model"", ""utc_time_created"": ""2021-09-11 06:35:38.218512"", ""flavors"": {""keras"": {""keras_module"": ""keras"", ""keras_version"": ""2.5.0"", ""save_format"": ""tf"", ""data"": ""data""}, ""python_function"": {""loader_module"": ""mlflow.keras"", ""python_version"": ""3.8.0"", ""data"": ""data"", ""env"": ""conda.yaml""}}}]",Mobilebert_tf-03_59_13-11_09_2021,814d288e7e5d12d076482ccf63885ebb62031bb5,main.py,LOCAL,fheinri2,fheinri2
s3://mlflow/13/1f0b5ee7bc174bcb85666448e0adffda/artifacts,1632155786801,tensorflow.mobilebert,13,active,0.4869239330291748,0.407975,,2858056.25,437.6339750289917,0.3065685759327378,0.14585,0.4396260455961948,0.6701,,0.0,0.4101749956607818,,92825.359375,None,None,32,None,1,False,0,0.0001,10000,10,whitelist_blacklist_and_dga_cutted,0.0,loss,False,0.9,0.999,0.0,1e-06,,AdamWeightDecay,0.01,3.0,False,None,42,True,None,False,None,1,0.0,None,1,1f0b5ee7bc174bcb85666448e0adffda,1f0b5ee7bc174bcb85666448e0adffda,1631457976701,FINISHED,"[{""run_id"": ""1f0b5ee7bc174bcb85666448e0adffda"", ""artifact_path"": ""model"", ""utc_time_created"": ""2021-09-12 15:50:24.275007"", ""flavors"": {""keras"": {""keras_module"": ""keras"", ""keras_version"": ""2.5.0"", ""save_format"": ""tf"", ""data"": ""data""}, ""python_function"": {""loader_module"": ""mlflow.keras"", ""python_version"": ""3.8.0"", ""data"": ""data"", ""env"": ""conda.yaml""}}}]",Mobilebert_tf-14_46_16-12_09_2021,814d288e7e5d12d076482ccf63885ebb62031bb5,main.py,LOCAL,fheinri2,fheinri2
