artifact_uri,end_time,experiment_id,lifecycle_stage,metrics.accuracy_test,metrics.binary_accuracy,metrics.loss,metrics.model_size_test,metrics.neg_precision_test,metrics.neg_recall_test,metrics.pos_precision_test,metrics.pos_recall_test,metrics.stopped_epoch,metrics.val_binary_accuracy,metrics.val_loss,params.baseline,params.batch_size,params.batch_size_param,params.class_weight,params.epochs,params.imbalanced_param,params.initial_epoch,params.learning_rate_param,params.max_features_param,params.max_queue_size,params.method,params.min_delta,params.monitor,params.opt_amsgrad,params.opt_beta_1,params.opt_beta_2,params.opt_decay,params.opt_epsilon,params.opt_learning_rate,params.opt_name,params.patience,params.restore_best_weights,params.sample_weight,params.seed_param,params.shuffle,params.steps_per_epoch,params.use_multiprocessing,params.validation_batch_size,params.validation_freq,params.validation_split,params.validation_steps,params.workers,run_id,run_uuid,start_time,status,tags.mlflow.log-model.history,tags.mlflow.runName,tags.mlflow.source.git.commit,tags.mlflow.source.name,tags.mlflow.source.type,tags.mlflow.user,user_id
s3://mlflow/9/1f426370016b4dca9b259be75b464357/artifacts,1632155787419,9,active,0.878225,0.8633583188056946,0.26642265915870667,9.744071960449219,0.9108238744365394,0.83855,0.8504192337981192,0.9179,0.0,0.880424976348877,0.2238340824842453,None,None,32,None,10,False,0,0.0001,10000,10,whitelist_blacklist_cutted,0,loss,False,0.9,0.999,0.0,1e-07,0.0001,Adam,3,False,None,42,True,None,False,None,1,0.0,None,1,1f426370016b4dca9b259be75b464357,1f426370016b4dca9b259be75b464357,1631130103343,FINISHED,"[{""run_id"": ""1f426370016b4dca9b259be75b464357"", ""artifact_path"": ""model"", ""utc_time_created"": ""2021-09-08 19:52:50.386603"", ""flavors"": {""keras"": {""keras_module"": ""keras"", ""keras_version"": ""2.5.0"", ""save_format"": ""tf"", ""data"": ""data""}, ""python_function"": {""loader_module"": ""mlflow.keras"", ""python_version"": ""3.8.0"", ""data"": ""data"", ""env"": ""conda.yaml""}}}]",Gru_tf-19_41_42-08_09_2021,814d288e7e5d12d076482ccf63885ebb62031bb5,main.py,LOCAL,fheinri2,fheinri2
s3://mlflow/9/402afc1228c849a8874406ec4511948a/artifacts,1632155787785,9,active,0.8258069926942001,0.8096993565559387,0.370169997215271,9.739839553833008,0.8139580826493777,0.84467720292232,0.8385853460130541,0.8069367824660802,0.0,0.826216995716095,0.3445976972579956,None,None,32,None,10,False,0,0.0001,10000,10,whitelist_blacklist,0,loss,False,0.9,0.999,0.0,1e-07,0.0001,Adam,3,False,None,42,True,None,False,None,1,0.0,None,1,402afc1228c849a8874406ec4511948a,402afc1228c849a8874406ec4511948a,1630906105945,FINISHED,"[{""run_id"": ""402afc1228c849a8874406ec4511948a"", ""artifact_path"": ""model"", ""utc_time_created"": ""2021-09-06 05:58:05.552761"", ""flavors"": {""keras"": {""keras_module"": ""keras"", ""keras_version"": ""2.5.0"", ""save_format"": ""tf"", ""data"": ""data""}, ""python_function"": {""loader_module"": ""mlflow.keras"", ""python_version"": ""3.8.0"", ""data"": ""data"", ""env"": ""conda.yaml""}}}]",Gru_tf-05_28_25-06_09_2021,814d288e7e5d12d076482ccf63885ebb62031bb5,main.py,LOCAL,fheinri2,fheinri2
s3://mlflow/9/1443d5137fdf481e8532e03fffa80994/artifacts,1632155787302,9,active,0.7945,0.9183346033096313,0.22985787689685822,9.742734909057617,0.7138086249455496,0.9832,0.9730163829103758,0.6058,0.0,0.7973250150680542,0.49707910418510437,None,None,32,None,10,False,0,0.0001,10000,10,whitelist_blacklist_and_dga_cutted,0,loss,False,0.9,0.999,0.0,1e-07,0.0001,Adam,3,False,None,42,True,None,False,None,1,0.0,None,1,1443d5137fdf481e8532e03fffa80994,1443d5137fdf481e8532e03fffa80994,1631450591716,FINISHED,"[{""run_id"": ""1443d5137fdf481e8532e03fffa80994"", ""artifact_path"": ""model"", ""utc_time_created"": ""2021-09-12 13:14:56.130495"", ""flavors"": {""keras"": {""keras_module"": ""keras"", ""keras_version"": ""2.5.0"", ""save_format"": ""tf"", ""data"": ""data""}, ""python_function"": {""loader_module"": ""mlflow.keras"", ""python_version"": ""3.8.0"", ""data"": ""data"", ""env"": ""conda.yaml""}}}]",Gru_tf-12_43_11-12_09_2021,814d288e7e5d12d076482ccf63885ebb62031bb5,main.py,LOCAL,fheinri2,fheinri2
s3://mlflow/9/c2b4f10bf5224793adfbfa06f89b8401/artifacts,1632155787184,9,active,0.7650029819591472,0.8934851288795471,0.28471681475639343,9.735551834106445,0.9590624394653581,0.5536379901595349,0.686263721868532,0.9763679737587595,0.0,0.7637263536453247,0.5456541776657104,None,None,32,None,10,False,0,0.0001,10000,10,whitelist_blacklist_unbalanced,0,loss,False,0.9,0.999,0.0,1e-07,0.0001,Adam,3,False,None,42,True,None,False,None,1,0.0,None,1,c2b4f10bf5224793adfbfa06f89b8401,c2b4f10bf5224793adfbfa06f89b8401,1631075561858,FINISHED,"[{""run_id"": ""c2b4f10bf5224793adfbfa06f89b8401"", ""artifact_path"": ""model"", ""utc_time_created"": ""2021-09-08 05:46:15.715159"", ""flavors"": {""keras"": {""keras_module"": ""keras"", ""keras_version"": ""2.5.0"", ""save_format"": ""tf"", ""data"": ""data""}, ""python_function"": {""loader_module"": ""mlflow.keras"", ""python_version"": ""3.8.0"", ""data"": ""data"", ""env"": ""conda.yaml""}}}]",Gru_tf-04_32_41-08_09_2021,814d288e7e5d12d076482ccf63885ebb62031bb5,main.py,LOCAL,fheinri2,fheinri2
s3://mlflow/9/186fc74b50e04725b507066863f650ca/artifacts,1632155787547,9,active,0.7560775572005384,0.8591563701629639,0.33165451884269714,9.736388206481934,0.9442971467490453,0.5442603185284881,0.6798759170810971,0.9678947958725886,0.0,0.7560144662857056,0.4798538088798523,None,None,32,None,10,False,0,0.0001,10000,10,whitelist_blacklist_and_dga,0,loss,False,0.9,0.999,0.0,1e-07,0.0001,Adam,3,False,None,42,True,None,False,None,1,0.0,None,1,186fc74b50e04725b507066863f650ca,186fc74b50e04725b507066863f650ca,1631315759984,FINISHED,"[{""run_id"": ""186fc74b50e04725b507066863f650ca"", ""artifact_path"": ""model"", ""utc_time_created"": ""2021-09-11 00:33:08.998822"", ""flavors"": {""keras"": {""keras_module"": ""keras"", ""keras_version"": ""2.5.0"", ""save_format"": ""tf"", ""data"": ""data""}, ""python_function"": {""loader_module"": ""mlflow.keras"", ""python_version"": ""3.8.0"", ""data"": ""data"", ""env"": ""conda.yaml""}}}]",Gru_tf-23_15_59-10_09_2021,814d288e7e5d12d076482ccf63885ebb62031bb5,main.py,LOCAL,fheinri2,fheinri2
